srrg2_solver|good you have a fresh compiler, using std=c++17 flag
srrg2_solver|build type: Release
srrg2_solver|cxx_standard: 17
srrg2_solver|common cxx flags:  -fPIC -Wall -Ofast -DNDEBUG -march=native
srrg2_solver|compiling with these CXX flags:  -fPIC -Wall -Ofast -DNDEBUG -march=native -Werror
srrg2_solver|example dir = /home/federico/Scaricati/labiagi_project/src/srrg2_solver/srrg2_solver/examples
srrg2_solver|data dir    = /home/federico/Scaricati/labiagi_project/src/srrg2_solver/srrg2_solver/examples/data
