[01m[K/home/federico/Scaricati/labiagi_project/src/srrg2_orazio/srrg2_orazio/src/orazio_host/orazio_shell_globals.c:[m[K In function ‘[01m[KrefreshParams[m[K’:
[01m[K/home/federico/Scaricati/labiagi_project/src/srrg2_orazio/srrg2_orazio/src/orazio_host/orazio_shell_globals.c:580:39:[m[K [01;35m[Kwarning: [m[Kformat ‘[01m[K%x[m[K’ expects argument of type ‘[01m[Kunsigned int[m[K’, but argument 2 has type ‘[01m[KSonarParamPacket * {aka struct <anonymous> *}[m[K’ [[01;35m[K-Wformat=[m[K]
     printf("requesting sonar params: [01;35m[K%x[m[K, %d %d \n", [32m[K&sonar_params[m[K, sonar_params.header.type, sonar_params.header.size);
                                      [01;35m[K~^[m[K             [32m[K~~~~~~~~~~~~~[m[K
[01m[K/home/federico/Scaricati/labiagi_project/src/srrg2_orazio/srrg2_orazio/src/orazio_host/orazio_shell_globals.c:584:34:[m[K [01;35m[Kwarning: [m[Kformat ‘[01m[K%x[m[K’ expects argument of type ‘[01m[Kunsigned int[m[K’, but argument 2 has type ‘[01m[KSonarParamPacket * {aka struct <anonymous> *}[m[K’ [[01;35m[K-Wformat=[m[K]
       printf("got sonar params: [01;35m[K%x[m[K, %d %d \n", [32m[K&sonar_params[m[K, sonar_params.header.type, sonar_params.header.size);
                                 [01;35m[K~^[m[K             [32m[K~~~~~~~~~~~~~[m[K
