Warning: Cannot symlink from /home/federico/Scaricati/labiagi_project/devel/.private/srrg_hbst/lib/pkgconfig/srrg_hbst.pc to existing file /home/federico/Scaricati/labiagi_project/devel/lib/pkgconfig/srrg_hbst.pc
Warning: Source hash: 877d207a9b84179597be180d95dd8335
Warning: Dest hash: a296b7a5948ec8b76502d246ff9d65ed
Warning: Cannot symlink from /home/federico/Scaricati/labiagi_project/devel/.private/srrg_hbst/share/srrg_hbst/cmake/srrg_hbstConfig.cmake to existing file /home/federico/Scaricati/labiagi_project/devel/share/srrg_hbst/cmake/srrg_hbstConfig.cmake
Warning: Source hash: 257d4c5d9f30e556041e4011d270e44f
Warning: Dest hash: 84bcd44050002a4bfc8fd667cbde70cd
