Warning: Cannot symlink from /home/federico/Scaricati/labiagi_project/devel/.private/srrg_joystick_teleop/lib/pkgconfig/srrg_joystick_teleop.pc to existing file /home/federico/Scaricati/labiagi_project/devel/lib/pkgconfig/srrg_joystick_teleop.pc
Warning: Source hash: 7c2c3f3614804f792977a30848268f97
Warning: Dest hash: c0c16a3b7236215b7c911c3d0eb96f1a
Warning: Cannot symlink from /home/federico/Scaricati/labiagi_project/devel/.private/srrg_joystick_teleop/share/srrg_joystick_teleop/cmake/srrg_joystick_teleopConfig.cmake to existing file /home/federico/Scaricati/labiagi_project/devel/share/srrg_joystick_teleop/cmake/srrg_joystick_teleopConfig.cmake
Warning: Source hash: 488532de1f369c82f1fa1ba7e6054a95
Warning: Dest hash: ca71a30c641a6714cf18ce3c39fad739
