Linked: (/home/federico/labiagi_project/devel/.private/srrg_joystick_teleop/lib/pkgconfig/srrg_joystick_teleop.pc, /home/federico/labiagi_project/devel/lib/pkgconfig/srrg_joystick_teleop.pc)
Linked: (/home/federico/labiagi_project/devel/.private/srrg_joystick_teleop/lib/srrg_joystick_teleop/joy_event_scanner, /home/federico/labiagi_project/devel/lib/srrg_joystick_teleop/joy_event_scanner)
Linked: (/home/federico/labiagi_project/devel/.private/srrg_joystick_teleop/lib/srrg_joystick_teleop/joy_teleop_node, /home/federico/labiagi_project/devel/lib/srrg_joystick_teleop/joy_teleop_node)
Linked: (/home/federico/labiagi_project/devel/.private/srrg_joystick_teleop/share/srrg_joystick_teleop/cmake/srrg_joystick_teleopConfig-version.cmake, /home/federico/labiagi_project/devel/share/srrg_joystick_teleop/cmake/srrg_joystick_teleopConfig-version.cmake)
Linked: (/home/federico/labiagi_project/devel/.private/srrg_joystick_teleop/share/srrg_joystick_teleop/cmake/srrg_joystick_teleopConfig.cmake, /home/federico/labiagi_project/devel/share/srrg_joystick_teleop/cmake/srrg_joystick_teleopConfig.cmake)
