Linked: (/home/federico/labiagi_project/devel/.private/srrg2_laser_slam_2d/lib/libsrrg2_laser_slam_2d_sensor_processing_library.so, /home/federico/labiagi_project/devel/lib/libsrrg2_laser_slam_2d_sensor_processing_library.so)
Linked: (/home/federico/labiagi_project/devel/.private/srrg2_laser_slam_2d/lib/libsrrg2_laser_slam_2d_registration_library.so, /home/federico/labiagi_project/devel/lib/libsrrg2_laser_slam_2d_registration_library.so)
Linked: (/home/federico/labiagi_project/devel/.private/srrg2_laser_slam_2d/lib/libsrrg2_laser_slam_2d_library.so, /home/federico/labiagi_project/devel/lib/libsrrg2_laser_slam_2d_library.so)
Linked: (/home/federico/labiagi_project/devel/.private/srrg2_laser_slam_2d/lib/libsrrg2_laser_slam_2d_mapping_library.so, /home/federico/labiagi_project/devel/lib/libsrrg2_laser_slam_2d_mapping_library.so)
Linked: (/home/federico/labiagi_project/devel/.private/srrg2_laser_slam_2d/lib/pkgconfig/srrg2_laser_slam_2d.pc, /home/federico/labiagi_project/devel/lib/pkgconfig/srrg2_laser_slam_2d.pc)
Linked: (/home/federico/labiagi_project/devel/.private/srrg2_laser_slam_2d/share/srrg2_laser_slam_2d/cmake/srrg2_laser_slam_2dConfig-version.cmake, /home/federico/labiagi_project/devel/share/srrg2_laser_slam_2d/cmake/srrg2_laser_slam_2dConfig-version.cmake)
Linked: (/home/federico/labiagi_project/devel/.private/srrg2_laser_slam_2d/share/srrg2_laser_slam_2d/cmake/srrg2_laser_slam_2dConfig.cmake, /home/federico/labiagi_project/devel/share/srrg2_laser_slam_2d/cmake/srrg2_laser_slam_2dConfig.cmake)
