window
(
  size [ 1327 2114 ] # in pixels
  scale 20.   # pixels per meter
  center [ 0.000 0.000 ]
  rotate [ 0.000  0.000 ]
  			
  show_data 1              # 1=on 0=off
)


define block model
(
  size [0.500 0.500 0.500]
  gui_nose 0
)


define topurg ranger
(
	sensor( 			
    range [ 0.0  30.0 ]
    fov 270.25
   samples 1081
  )

  # generic model properties
  color "black"
  size [ 0.050 0.050 0.100 ]
)

define erratic position
(
  #size [0.415 0.392 0.25]
  size [0.150 0.150 0.150]
  origin [-0.050 0.000 0.000 0.000]
  gui_nose 1
  drive "diff"
  topurg(pose [ 0.050 0.000 0.000 0.000 ])
  obstacle_return 1
)

# define some obstacle
define block model
(
  size [0.2 0.2 0.2]
  gui_nose 1
  obstacle_return 1
  ranger_return 1.0
  gui_outline 1
  gui_move 1 
)


define floorplan model
(
  # sombre, sensible, artistic
  color "gray30"

  # most maps will need a bounding box
  boundary 1

  gui_nose 0
  gui_grid 0

  gui_outline 0
  gripper_return 0
  fiducial_return 0
  ranger_return 1.000
)

# set the resolution of the underlying raytrace model in meters
resolution 0.02

interval_sim 100  # simulation timestep in milliseconds


window
( 
  size [ 745 448 ] 

  rotate [ 0.000 -1.560 ]
  scale 28.806 
)

# load an environment bitmap
floorplan
(
   name "diag_1"     
   bitmap "cappero_laser_odom_diag_2020-05-06-16-26-03.png"
   size   [106.913 49.3527 0.5]
   pose   [0 0 0 0]
)

# throw in robots
erratic( pose [ -4 -13 0.000 180.000 ] name "era0" color "red")
erratic( pose [ 0 -13 0.000 0.000 ] name "era1" color "blue")
#erratic( pose [ -2 -13 0.000 180.000 ] name "era2" color "green")
#erratic( pose [ -2 -13 0.000 180.000 ] name "era3" color "green")
#erratic( pose [ -2 -13 0.000 180.000 ] name "era4" color "green")

# throw in obstacles
#block(name "obstacle_red" color "red" pose [ -3 -12 0.000 180.000 ])
#block(name "obstacle_purple" color "purple" pose [ -3 -11 0.000 150.000 ])




