show_clock 0
show_clock_interval 10000
resolution 0.02
threads 4
speedup 1.000

define sicklaser ranger
(
  sensor(
    pose [ 0 0 0.1 0 ]
    fov 360
    range [ 0.0 30.0 ]
    samples 1081
  )
  color "black"
  block( 
    points 4
    point[0] [0 0]
    point[1] [0 1]
    point[2] [1 1]
    point[3] [1 0]
    z [0 0.21]
  )
)

define floorplan model
(
  color "gray30"
  boundary 1

  gui_nose 0
  gui_grid 0
  gui_move 0
  gui_outline 0
  gripper_return 0
  fiducial_return 0
  ranger_return 0
  obstacle_return 1
)

floorplan
(
  name "blank"
  bitmap "cappero_laser_odom_diag_2020-05-06-16-26-03.png"
  #size [60.000 60.000 0.800]
  #size [80.5 80.5 0.5]
  size   [106.913 49.353 0.500]
  #size [16.1 16.1 0.5]
  #size [8.05 8.05 0]
  pose [0.000 0.000 0.000 0.000]

)



window
(
  size [ 1446 975 ] 

  rotate [ 0.000 0.440 ]
  scale 56.134 


# GUI options
  show_data 1
  show_flags 1
  show_blocks 1
  show_clock 1
  show_footprints 1
  show_grid 1
  show_trailarrows 0
  show_trailrise 0
  show_trailfast 0
  show_occupancy 0

)

define agent position
(
  # actual size
  size [0.260 0.260 0.220] # sizes from MobileRobots' web site

  # the pioneer's center of rotation is offset from its center of area
  origin [0.000 0.000 0.000 0.000]

  # draw a nose on the robot so we can see which way it points
  gui_nose 1

  color "random"
  drive "diff"		 	# Differential steering model.
  obstacle_return 1           	# Can hit things.
  ranger_return 7.000           	# reflects sonar beams
  blob_return 1               	# Seen by blobfinders  
  fiducial_return 1           	# Seen as "1" fiducial finders
  sicklaser(
	pose [ 0.000 0.000 0.000 0.000 ] 
  )
  
  # [ xmin xmax ymin ymax zmin zmax amin amax ]				
  velocity_bounds [-5.0 5.0 -5.0 5.0 0 0 -270.0 270.0 ]					
  acceleration_bounds [-3 3 -3 3 0 0 -270 270.0 ]
  )

agent( pose [ -4.000 -13.000 0.000 180.000 ])
agent( pose [ 0.000 -13.000 0.000 0.000 ])
#agent( pose [ 10.392 -6.0 0.00 -210.0])
#agent( pose [ 0.0 -12.0 0.00 -270.0])
#agent( pose [ -10.392 -6.0 0.00 -330.0])
#agent( pose [ -10.392 6.0 0.00 -390.0])

