Warning: Cannot symlink from /home/federico/Scaricati/labiagi_project/devel/.private/srrg2_orazio_ros/lib/pkgconfig/srrg2_orazio_ros.pc to existing file /home/federico/Scaricati/labiagi_project/devel/lib/pkgconfig/srrg2_orazio_ros.pc
Warning: Source hash: 5a6ec3485347dda5c04dd31c306e93a1
Warning: Dest hash: ecff4cdd1e488be4b9539c15537045f9
Warning: Cannot symlink from /home/federico/Scaricati/labiagi_project/devel/.private/srrg2_orazio_ros/lib/srrg2_orazio_ros/orazio_robot_node to existing file /home/federico/Scaricati/labiagi_project/devel/lib/srrg2_orazio_ros/orazio_robot_node
Warning: Source hash: 290aa1b3188c019848587d3fe6901857
Warning: Dest hash: d77ba448ef68ed05eb3af359c895a187
Warning: Cannot symlink from /home/federico/Scaricati/labiagi_project/devel/.private/srrg2_orazio_ros/share/srrg2_orazio_ros/cmake/srrg2_orazio_rosConfig.cmake to existing file /home/federico/Scaricati/labiagi_project/devel/share/srrg2_orazio_ros/cmake/srrg2_orazio_rosConfig.cmake
Warning: Source hash: 3c410777a9e2d964fcdb80562e743d2f
Warning: Dest hash: de3bb3c5f6619bc99fa673975f1efe70
